<?xml version="1.0" encoding="UTF-8" standalone="no"?>
<svg width="15px" height="19px" viewBox="0 0 15 19" version="1.1" xmlns="http://www.w3.org/2000/svg" xmlns:xlink="http://www.w3.org/1999/xlink">
    <!-- Generator: sketchtool 41.2 (35397) - http://www.bohemiancoding.com/sketch -->
    <title>22EB9F69-CE50-42DE-9941-4F01EF8F022B</title>
    <desc>Created with sketchtool.</desc>
    <defs></defs>
    <g id="Web-app-UNO-Desktop" stroke="none" stroke-width="1" fill="none" fill-rule="evenodd">
        <g id="sign-in" transform="translate(-547.000000, -397.000000)" fill="#4A4A4A">
            <path d="M554.423474,407.274252 C556.30615,407.274252 558.001176,407.700419 559.192025,408.357757 C560.382874,409.015309 561.022118,409.864648 561.022118,410.699002 L561.022118,414.979941 L547.82483,414.979941 L547.82483,410.699002 C547.82483,409.864648 548.464074,409.015309 549.654923,408.357757 C550.845772,407.700419 552.540799,407.274252 554.423474,407.274252 M554.423474,406.418064 C552.422023,406.418064 550.611933,406.860071 549.268284,407.601958 C547.924635,408.343844 547,409.425209 547,410.699002 L547,415.408035 C547,415.632142 547.196516,415.836128 547.412415,415.836128 L561.434533,415.836128 C561.650432,415.836128 561.846948,415.632142 561.846948,415.408035 L561.846948,410.699002 C561.846948,409.425209 560.922313,408.343844 559.578665,407.601958 C558.235016,406.860071 556.424925,406.418064 554.423474,406.418064 M554.423474,397.856188 C555.053232,397.856188 555.644842,398.145365 556.105303,398.725646 C556.565765,399.306141 556.87219,400.138998 556.87219,401.066891 C556.87219,401.994785 556.565765,402.827641 556.105303,403.408136 C555.644842,403.988418 555.053232,404.310986 554.423474,404.310986 C553.793716,404.310986 553.202106,403.988418 552.741645,403.408136 C552.281183,402.827641 551.974759,401.994785 551.974759,401.066891 C551.974759,400.138998 552.281183,399.306141 552.741645,398.725646 C553.202106,398.145365 553.793716,397.856188 554.423474,397.856188 M554.423474,397 C553.458835,397 552.604311,397.52099 552.019918,398.257526 C551.435526,398.994061 551.098376,399.985098 551.098376,401.066891 C551.098376,402.148684 551.435526,403.139722 552.019918,403.876257 C552.604311,404.612793 553.458835,405.100391 554.423474,405.100391 C555.388113,405.100391 556.242638,404.612793 556.82703,403.876257 C557.411422,403.139722 557.748572,402.148684 557.748572,401.066891 C557.748572,399.985098 557.411422,398.994061 556.82703,398.257526 C556.242638,397.52099 555.388113,397 554.423474,397" id="name"></path>
        </g>
    </g>
</svg>