<?xml version="1.0" encoding="UTF-8" standalone="no"?>
<svg width="12px" height="18px" viewBox="0 0 12 18" version="1.1" xmlns="http://www.w3.org/2000/svg" xmlns:xlink="http://www.w3.org/1999/xlink">
    <!-- Generator: sketchtool 41.2 (35397) - http://www.bohemiancoding.com/sketch -->
    <title>0BBCBAA7-A3E7-4B74-98F0-6D1B75F9C934</title>
    <desc>Created with sketchtool.</desc>
    <defs></defs>
    <g id="Web-app-UNO-Desktop" stroke="none" stroke-width="1" fill="none" fill-rule="evenodd">
        <g id="Billing-update" transform="translate(-1241.000000, -756.000000)" fill="#000000">
            <path d="M1241.61852,762.274867 L1251.42172,762.274867 C1251.96759,762.274867 1252.24466,761.6186 1251.86439,761.227133 L1246.96226,756.1874 C1246.72066,755.937533 1246.31959,755.937533 1246.07692,756.1874 L1241.17586,761.227133 C1240.79559,761.6186 1241.07266,762.274867 1241.61852,762.274867 Z M1251.42172,767.725 L1241.61852,767.725 C1241.07266,767.725 1240.79559,768.381267 1241.17586,768.772733 L1246.07692,773.812467 C1246.31959,774.062333 1246.72066,774.062333 1246.96226,773.812467 L1251.86439,768.772733 C1252.24466,768.381267 1251.96759,767.725 1251.42172,767.725 Z" id="Page-1"></path>
        </g>
    </g>
</svg>