<?xml version="1.0" encoding="UTF-8" standalone="no"?>
<svg width="32px" height="32px" viewBox="0 0 32 32" version="1.1" xmlns="http://www.w3.org/2000/svg" xmlns:xlink="http://www.w3.org/1999/xlink">
    <!-- Generator: sketchtool 41.2 (35397) - http://www.bohemiancoding.com/sketch -->
    <title>210D66C3-022F-48C6-8D73-291AC1FC38A2</title>
    <desc>Created with sketchtool.</desc>
    <defs></defs>
    <g id="Web-app-UNO-Desktop" stroke="none" stroke-width="1" fill="none" fill-rule="evenodd">
        <g id="Viewfinder" transform="translate(-217.000000, -883.000000)">
            <g id="Group-19" transform="translate(217.149401, 883.233980)">
                <g id="Video">
                    <ellipse id="Oval" fill="#000000" opacity="0.613922575" cx="15.8796054" cy="15.7063896" rx="15.8796054" ry="15.7063896"></ellipse>
                    <polygon id="Play" fill="#FFFFFF" points="12.8061334 21.217925 12.8061334 9.51931061 23.0510401 15.3686178"></polygon>
                </g>
            </g>
        </g>
    </g>
</svg>