<?xml version="1.0" encoding="UTF-8" standalone="no"?>
<svg width="15px" height="17px" viewBox="0 0 15 17" version="1.1" xmlns="http://www.w3.org/2000/svg" xmlns:xlink="http://www.w3.org/1999/xlink">
    <!-- Generator: sketchtool 41.2 (35397) - http://www.bohemiancoding.com/sketch -->
    <title>3D99D084-6E8C-4D60-9980-167DFB9D76AD</title>
    <desc>Created with sketchtool.</desc>
    <defs></defs>
    <g id="Web-app-UNO-Desktop" stroke="none" stroke-width="1" fill="none" fill-rule="evenodd">
        <g id="Clips-gallery" transform="translate(-1209.000000, -446.000000)" fill="#FFFFFF">
            <g id="Group" transform="translate(1209.000000, 446.800000)">
                <polygon id="Fill-1" points="13.3593155 11.9 13.3593155 13.5932 1.77010801 13.5932 1.77010801 11.9 0.0964331407 11.9 0.0964331407 15.2696429 14.99786 15.2696429 14.99786 11.9"></polygon>
                <polygon id="Fill-3" points="3.41957144 6.28392857 5.55587463 6.77644286 5.62613527 0 9.47243048 0 9.54269112 6.77644286 11.6977463 6.28392857 7.54928287 11.8764429"></polygon>
            </g>
        </g>
    </g>
</svg>